id,ad_agency_group_id,company_id,created_time,created_user_id,updated_time,updated_user_id,version_no
768214,34001,2000003,2015/3/23 17:27,100001,2015/3/23 17:27,100001,1
768215,34002,2000004,2015/3/23 17:27,100001,2015/3/23 17:27,100001,1
768216,34003,2000005,2015/3/23 17:27,100001,2015/3/23 17:27,100001,1
768217,34004,2000006,2015/3/23 17:27,100001,2015/3/23 17:27,100001,1