id,batch_code,halt_setting_type,weekday,halt_start_time,halt_end_time,halt_start_date_time,halt_end_date_time
421,OTHFED04,1,0,NULL,NULL,"2015-09-16 17:00:00","2015-09-17 10:00:00"
434,DATAGG01,0,3,08:45:00,09:45:00,NULL,NULL
435,DATAGG02,0,3,08:45:00,09:45:00,NULL,NULL
