id,judgement_industry_id,caution_expression,caution_expression_adjust,note,invalid_flag,created_time,created_user_id,updated_time,updated_user_id,version_no
1,NULL,○校生,○校生,NULL,0,"2015-09-03 21:16:36",100000020,"2015-09-03 21:16:36",100000020,1
2,NULL,〈〈,〈〈,NULL,0,"2015-09-03 21:16:36",100000020,"2015-09-03 21:16:36",100000020,1
3,NULL,〉〉,〉〉,NULL,0,"2015-09-03 21:16:36",100000020,"2015-09-03 21:16:36",100000020,1
