id,company_role_code,customer_id,company_name,company_kana,company_alias,url,zip,prefecture,city,other_address,building,payment_type,payment_date,additional_information_flag,concealment_flag,primary_ad_agency_id,primary_ad_agency_commission_rate,secondary_ad_agency_commission_rate,ad_deal_report_address,ad_deal_report_subject,media_charge_rate_calculation_type,invalid_flag,delete_flag,created_time,created_user_id,updated_time,updated_user_id,version_no
1000000,0,1,E3D,イーサンディー,E3D,http://testtestdemo.e3d.co.jp/,130-0022,東京都,港区,E3D住所,E3Dビル,0,NULL,0,0,NULL,NULL,NULL,,,0,0,0,"2015-04-03 19:24:44",100000001,"2015-04-03 19:24:44",100000001,1
1000001,1,2,DDH,ディーディーエイチ,DDH,http://testtestdemo.ddh.co.jp/,130-0022,東京都,港区,DDH住所,DDHビル,1,99,0,0,NULL,NULL,NULL,,,0,0,0,"2015-04-03 19:24:44",100000001,"2015-04-03 19:24:44",100000001,1
1000002,1,3,E3D（一次代理店）,イーサンディー（イチジダイリテン）,E3D（一次代理店）,http://testtestdemo.e3d.co.jp/,130-0022,東京都,港区,E3D（一次代理店）住所,E3D（一次代理店）ビル,1,99,0,0,NULL,NULL,NULL,,,0,0,0,"2015-04-03 19:24:44",100000001,"2015-04-03 19:24:44",100000001,1
