id,role_id,permission_id,decision_order,mask,created_time,created_user_id,updated_time,updated_user_id,version_no
1,1,1,0,65536,2015/8/1 0:00,0,2015/8/1 0:00,0,0
2,1,2,1,65536,2015/8/1 0:00,0,2015/8/1 0:00,0,0
3,1,3,2,65536,2015/8/1 0:00,0,2015/8/1 0:00,0,0
