id,account_id,media_site_id,keyword,keyword_adjust,note,invalid_flag,delete_flag,created_time,created_user_id,updated_time,updated_user_id,version_no
1,13010,NULL,40歳の童貞男,40歳ノ童貞男,2011/11/14ビデオマーケット依頼により追加,0,0,"2015-09-03 20:57:21",100000020,"2015-12-04 15:56:22",8,9
2,13010,NULL,"LADY -最後の犯罪プロファイル-","LADY -最後ノ犯罪プロファイル-",2011/11/14ビデオマーケット依頼により追加,1,1,"2015-09-03 20:57:21",100000020,"2015-09-30 01:47:25",100000025,3
3,13010,NULL,"LADY 最後の犯罪プロファイル","LADY 最後ノ犯罪プロファイル",2011/11/14ビデオマーケット依頼により追加,1,1,"2015-09-03 20:57:21",100000020,"2015-09-30 01:47:25",100000025,3
