id,category,permission,created_time,created_user_id,updated_time,updated_user_id,version_no
1,login,front,"2015-08-01 00:00:00",0,"2015-08-01 00:00:00",0,0
2,login,back,"2015-08-01 00:00:00",0,"2015-08-01 00:00:00",0,0
3,login,media,"2015-08-01 00:00:00",0,"2015-08-01 00:00:00",0,0
