id,encrypted_login_id,company_id,role_id,full_scope_flag,password_hash,password_expiration_date,temporary_password_flag,password_reset_token,password_reset_token_expiration_date,system_user_type,account_id,encrypted_user_name,encrypted_contact_mail_address,alert_notification_type,last_login_time,login_failure_count,system_user_status,invalid_flag,created_time,created_user_id,updated_time,updated_user_id,version_no
8,84389bd8c488a0a4711d9515c50c232011e27884b2854ed3e43972899698c27e,3396,1,0,$2a$10$qFlOkv6K.u1Of.d8xu7cau.SSYr1jDbY577fLBPXpi9sj1KhH95.S,2020/10/31,0,pjyhIUhzMrWH1Ce8R6TZfZtTQJ3mGhPtPHmpPen8vzf1ASU5uqiaZCD8g05ULTLs,2015/12/5,0,NULL,db91bd9a1020d1485d0715ede687af179c9ac5364da839a092c40e1c77ada21f,ecc13a7bf02e58f77f9d092119639e14e58b45ff6c9065a9da091024b781db9e,0,2016/10/25 15:14,0,0,0,2015/4/3 18:02,100000001,2016/9/20 10:39,8,14
20001,4ece8717498649f274e80d1b7dd19659394f8e19ac50a64f2f84f38a6b50090a,3684,8,1,$2a$10$qFlOkv6K.u1Of.d8xu7cau.SSYr1jDbY577fLBPXpi9sj1KhH95.S,2020/10/31,1,NULL,NULL,0,NULL,db91bd9a1020d1485d0715ede687af179c9ac5364da839a092c40e1c77ada21f,ecc13a7bf02e58f77f9d092119639e14e58b45ff6c9065a9da091024b781db9e,0,NULL,0,0,0,2015/9/1 0:00,8,2015/10/22 10:27,100000020,2
20002,4571387c4121ba1f4e138af8a739ed697ecb31198b26b058c28ae5ac2d0269b3,3684,8,1,$2a$10$qFlOkv6K.u1Of.d8xu7cau.SSYr1jDbY577fLBPXpi9sj1KhH95.S,2020/10/31,1,NULL,NULL,0,NULL,db91bd9a1020d1485d0715ede687af179c9ac5364da839a092c40e1c77ada21f,ecc13a7bf02e58f77f9d092119639e14e58b45ff6c9065a9da091024b781db9e,0,NULL,0,0,0,2015/9/1 0:00,8,2015/10/22 10:27,100000020,2
