id,judgement_industry_id,unusable_expression,unusable_expression_adjust,generate_warning_date,note,invalid_flag,created_time,created_user_id,updated_time,updated_user_id,version_no
22681,NULL,±±,±±,NULL,NULL,0,"2015-09-03 21:47:47",100000020,"2015-09-03 21:47:47",100000020,1
22682,NULL,´´,"́ ́",NULL,NULL,0,"2015-09-03 21:47:47",100000020,"2015-09-03 21:47:47",100000020,1
22683,NULL,××,××,NULL,NULL,0,"2015-09-03 21:47:47",100000020,"2015-09-03 21:47:47",100000020,1
